Using dropout
…
For example, in the “flying” dataset, the final survey-related item
is stored in the “location_census_region” column. Following this, the
“survey_type” column contains supplementary survey information. Many
datasets incorporate similar non-survey-related data, and it’s crucial
to consider such cases.

To gain a comprehensive overview of the dropout patterns within your
dataset, consider the following code snippet:

drop_summary(flying, "location_census_region")
#> # A tibble: 27 × 9
#>    column_name      dropout drop_rate cum_drop_rate drop_na section_na single_na
#>    <chr>              <int>     <dbl>         <dbl>   <dbl>      <dbl>     <dbl>
#>  1 respondent_id          0      0             0          0          0         0
#>  2 travel_frequency       0      0             0          0          0         0
#>  3 seat_recline          18      0.02          0.02      18        164         0
#>  4 height                 0      0             0.02      18        164        12
#>  5 children_under_…       1      0             0.02      19        164         6
#>  6 two_armrests           1      0             0.02      20        164         0
#>  7 middle_armrest         0      0             0.02      20        164         0
#>  8 window_shade           0      0             0.02      20        164         0
#>  9 moving_to_unsol…       1      0             0.02      21        164         0
#> 10 talking_to_seat…       0      0             0.02      21        164         0
#> # ℹ 17 more rows
#> # ℹ 2 more variables: missing <dbl>, completion_rate <dbl>
…
